2015-06-14 11:20:42 - PHP Notice:  Undefined index: product_id in /home/labemol/crazy.co.ua/www/vqmod/vqcache/vq2-catalog_controller_module_viewed.php on line 15
2015-06-25 22:25:53 - PHP Notice:  Undefined index: product_id in /home/labemol/crazy.co.ua/www/vqmod/vqcache/vq2-catalog_controller_module_viewed.php on line 15
2015-06-26 22:57:31 - PHP Notice:  Undefined index: product_id in /home/labemol/crazy.co.ua/www/vqmod/vqcache/vq2-catalog_controller_module_viewed.php on line 15
2015-06-29 6:05:39 - PHP Notice:  Undefined index: product_id in /home/labemol/crazy.co.ua/www/vqmod/vqcache/vq2-catalog_controller_module_viewed.php on line 15
2015-07-15 22:53:57 - PHP Notice:  Undefined variable: totalnews in /home/labemol/crazy.co.ua/www/admin/view/template/module/Newsdv/list.tpl on line 34
2015-07-15 22:53:57 - PHP Notice:  Undefined variable: news in /home/labemol/crazy.co.ua/www/admin/view/template/module/Newsdv/list.tpl on line 42
2015-07-15 22:54:25 - PHP Notice:  Undefined variable: totalnews in /home/labemol/crazy.co.ua/www/admin/view/template/module/Newsdv/list.tpl on line 34
2015-07-15 22:54:25 - PHP Notice:  Undefined variable: news in /home/labemol/crazy.co.ua/www/admin/view/template/module/Newsdv/list.tpl on line 42
2015-07-15 22:56:06 - PHP Notice:  Undefined variable: totalnews in /home/labemol/crazy.co.ua/www/admin/view/template/module/Newsdv/list.tpl on line 34
2015-07-15 22:56:06 - PHP Notice:  Undefined variable: news in /home/labemol/crazy.co.ua/www/admin/view/template/module/Newsdv/list.tpl on line 42
2015-07-15 22:56:20 - PHP Notice:  Undefined variable: totalnews in /home/labemol/crazy.co.ua/www/admin/view/template/module/Newsdv/list.tpl on line 34
2015-07-15 22:56:20 - PHP Notice:  Undefined variable: news in /home/labemol/crazy.co.ua/www/admin/view/template/module/Newsdv/list.tpl on line 42
2015-07-15 22:56:57 - PHP Notice:  Undefined variable: button_save in /home/labemol/crazy.co.ua/www/admin/view/template/module/Newsdv/list.tpl on line 19
2015-07-15 22:56:57 - PHP Notice:  Undefined variable: cancel in /home/labemol/crazy.co.ua/www/admin/view/template/module/Newsdv/list.tpl on line 20
2015-07-15 22:56:57 - PHP Notice:  Undefined variable: button_cancel in /home/labemol/crazy.co.ua/www/admin/view/template/module/Newsdv/list.tpl on line 20
2015-07-15 22:56:57 - PHP Notice:  Undefined variable: tab_language in /home/labemol/crazy.co.ua/www/admin/view/template/module/Newsdv/list.tpl on line 25
2015-07-15 22:56:57 - PHP Notice:  Undefined variable: tab_setting in /home/labemol/crazy.co.ua/www/admin/view/template/module/Newsdv/list.tpl on line 26
2015-07-15 22:56:57 - PHP Notice:  Undefined variable: action in /home/labemol/crazy.co.ua/www/admin/view/template/module/Newsdv/list.tpl on line 28
2015-07-15 22:56:57 - PHP Notice:  Undefined variable: languages in /home/labemol/crazy.co.ua/www/admin/view/template/module/Newsdv/list.tpl on line 31
2015-07-15 22:56:57 - PHP Warning:  Invalid argument supplied for foreach() in /home/labemol/crazy.co.ua/www/admin/view/template/module/Newsdv/list.tpl on line 31
2015-07-15 22:56:57 - PHP Notice:  Undefined variable: languages in /home/labemol/crazy.co.ua/www/admin/view/template/module/Newsdv/list.tpl on line 35
2015-07-15 22:56:57 - PHP Warning:  Invalid argument supplied for foreach() in /home/labemol/crazy.co.ua/www/admin/view/template/module/Newsdv/list.tpl on line 35
2015-07-15 22:56:57 - PHP Notice:  Undefined variable: entry_store in /home/labemol/crazy.co.ua/www/admin/view/template/module/Newsdv/list.tpl on line 73
2015-07-15 22:56:57 - PHP Notice:  Undefined variable: news_store in /home/labemol/crazy.co.ua/www/admin/view/template/module/Newsdv/list.tpl on line 78
2015-07-15 22:56:57 - PHP Warning:  in_array() expects parameter 2 to be array, null given in /home/labemol/crazy.co.ua/www/admin/view/template/module/Newsdv/list.tpl on line 78
2015-07-15 22:56:57 - PHP Notice:  Undefined variable: text_default in /home/labemol/crazy.co.ua/www/admin/view/template/module/Newsdv/list.tpl on line 83
2015-07-15 22:56:57 - PHP Notice:  Undefined variable: stores in /home/labemol/crazy.co.ua/www/admin/view/template/module/Newsdv/list.tpl on line 86
2015-07-15 22:56:57 - PHP Warning:  Invalid argument supplied for foreach() in /home/labemol/crazy.co.ua/www/admin/view/template/module/Newsdv/list.tpl on line 86
2015-07-15 22:56:57 - PHP Notice:  Undefined variable: text_select_all in /home/labemol/crazy.co.ua/www/admin/view/template/module/Newsdv/list.tpl on line 99
2015-07-15 22:56:57 - PHP Notice:  Undefined variable: text_unselect_all in /home/labemol/crazy.co.ua/www/admin/view/template/module/Newsdv/list.tpl on line 99
2015-07-15 22:56:57 - PHP Notice:  Undefined variable: entry_keyword in /home/labemol/crazy.co.ua/www/admin/view/template/module/Newsdv/list.tpl on line 103
2015-07-15 22:56:57 - PHP Notice:  Undefined variable: keyword in /home/labemol/crazy.co.ua/www/admin/view/template/module/Newsdv/list.tpl on line 104
2015-07-15 22:56:57 - PHP Notice:  Undefined variable: entry_image in /home/labemol/crazy.co.ua/www/admin/view/template/module/Newsdv/list.tpl on line 107
2015-07-15 22:56:57 - PHP Notice:  Undefined variable: thumb in /home/labemol/crazy.co.ua/www/admin/view/template/module/Newsdv/list.tpl on line 108
2015-07-15 22:56:57 - PHP Notice:  Undefined variable: image in /home/labemol/crazy.co.ua/www/admin/view/template/module/Newsdv/list.tpl on line 109
2015-07-15 22:56:57 - PHP Notice:  Undefined variable: text_browse in /home/labemol/crazy.co.ua/www/admin/view/template/module/Newsdv/list.tpl on line 110
2015-07-15 22:56:57 - PHP Notice:  Undefined variable: no_image in /home/labemol/crazy.co.ua/www/admin/view/template/module/Newsdv/list.tpl on line 110
2015-07-15 22:56:57 - PHP Notice:  Undefined variable: text_clear in /home/labemol/crazy.co.ua/www/admin/view/template/module/Newsdv/list.tpl on line 110
2015-07-15 22:56:57 - PHP Notice:  Undefined variable: entry_status in /home/labemol/crazy.co.ua/www/admin/view/template/module/Newsdv/list.tpl on line 114
2015-07-15 22:56:57 - PHP Notice:  Undefined variable: status in /home/labemol/crazy.co.ua/www/admin/view/template/module/Newsdv/list.tpl on line 116
2015-07-15 22:56:57 - PHP Notice:  Undefined variable: text_enabled in /home/labemol/crazy.co.ua/www/admin/view/template/module/Newsdv/list.tpl on line 120
2015-07-15 22:56:57 - PHP Notice:  Undefined variable: text_disabled in /home/labemol/crazy.co.ua/www/admin/view/template/module/Newsdv/list.tpl on line 121
2015-07-15 22:56:57 - PHP Notice:  Undefined variable: languages in /home/labemol/crazy.co.ua/www/admin/view/template/module/Newsdv/list.tpl on line 136
2015-07-15 22:56:57 - PHP Warning:  Invalid argument supplied for foreach() in /home/labemol/crazy.co.ua/www/admin/view/template/module/Newsdv/list.tpl on line 136
2015-07-15 22:56:57 - PHP Notice:  Undefined variable: token in /home/labemol/crazy.co.ua/www/admin/view/template/module/Newsdv/list.tpl on line 153
2015-07-15 22:56:57 - PHP Notice:  Undefined variable: text_image_manager in /home/labemol/crazy.co.ua/www/admin/view/template/module/Newsdv/list.tpl on line 156
2015-07-15 22:56:57 - PHP Notice:  Undefined variable: token in /home/labemol/crazy.co.ua/www/admin/view/template/module/Newsdv/list.tpl on line 160
2015-07-15 22:58:05 - PHP Notice:  Undefined variable: totalnews in /home/labemol/crazy.co.ua/www/admin/view/template/module/Newsdv/list.tpl on line 34
2015-07-15 22:58:05 - PHP Notice:  Undefined variable: news in /home/labemol/crazy.co.ua/www/admin/view/template/module/Newsdv/list.tpl on line 42
2015-07-16 13:10:51 - PHP Notice:  Undefined index: product_id in /home/labemol/crazy.co.ua/www/vqmod/vqcache/vq2-catalog_controller_module_viewed.php on line 15
2015-07-18 10:54:12 - PHP Notice:  Undefined index: product_id in /home/labemol/crazy.co.ua/www/vqmod/vqcache/vq2-catalog_controller_module_viewed.php on line 15
2015-07-21 20:30:53 - PHP Notice:  Undefined index: product_id in /home/labemol/crazy.co.ua/www/vqmod/vqcache/vq2-catalog_controller_module_viewed.php on line 15
2015-07-24 13:13:41 - PHP Notice:  Undefined index: product_id in /home/labemol/crazy.co.ua/www/vqmod/vqcache/vq2-catalog_controller_module_viewed.php on line 15
2015-07-24 14:00:53 - PHP Notice:  Undefined index: product_id in /home/labemol/crazy.co.ua/www/vqmod/vqcache/vq2-catalog_controller_module_viewed.php on line 15
2015-08-15 18:40:21 - PHP Notice:  Undefined index: user_phone in /home/labemol/crazy.co.ua/www/catalog/controller/module/recall.php on line 181
2015-08-15 18:40:46 - PHP Notice:  Undefined index: user_phone in /home/labemol/crazy.co.ua/www/catalog/controller/module/recall.php on line 181
2015-08-16 15:32:48 - PHP Notice:  Undefined index: user_phone in /home/labemol/crazy.co.ua/www/catalog/controller/module/recall.php on line 181
2015-08-24 21:41:56 - PHP Notice:  Undefined index: email in /home/labemol/crazy.co.ua/www/catalog/controller/account/login.php on line 203
2015-08-24 21:41:56 - PHP Notice:  Undefined index: password in /home/labemol/crazy.co.ua/www/catalog/controller/account/login.php on line 203
2015-08-24 21:41:56 - PHP Notice:  Undefined index: email in /home/labemol/crazy.co.ua/www/catalog/controller/account/login.php on line 207
2015-09-17 0:22:43 - PHP Notice:  Undefined index: product_id in /home/labemol/crazy.co.ua/www/vqmod/vqcache/vq2-catalog_controller_module_viewed.php on line 15
2015-09-17 0:29:37 - PHP Notice:  Undefined index: product_id in /home/labemol/crazy.co.ua/www/vqmod/vqcache/vq2-catalog_controller_module_viewed.php on line 15
2015-10-16 2:37:31 - PHP Warning:  unlink(/home/labemol/crazy.co.ua/www/system/cache/cache.manufacturer.0.1.1444948772): No such file or directory in /home/labemol/crazy.co.ua/www/vqmod/vqcache/vq2-system_library_cache.php on line 18
2015-10-16 2:37:31 - PHP Warning:  unlink(/home/labemol/crazy.co.ua/www/system/cache/cache.product.seopath.1444955851): No such file or directory in /home/labemol/crazy.co.ua/www/vqmod/vqcache/vq2-system_library_cache.php on line 50
2015-10-16 2:37:31 - PHP Warning:  unlink(/home/labemol/crazy.co.ua/www/system/cache/cache.product.seopath.1444955851): No such file or directory in /home/labemol/crazy.co.ua/www/vqmod/vqcache/vq2-system_library_cache.php on line 50
2015-10-16 2:37:31 - PHP Warning:  unlink(/home/labemol/crazy.co.ua/www/system/cache/cache.product.seopath.1444955851): No such file or directory in /home/labemol/crazy.co.ua/www/vqmod/vqcache/vq2-system_library_cache.php on line 50
2015-10-16 2:37:31 - PHP Warning:  gzuncompress(): data error in /home/labemol/crazy.co.ua/www/vqmod/vqcache/vq2-system_library_cache.php on line 11
2015-10-27 6:47:38 - PHP Warning:  Invalid argument supplied for foreach() in /home/svatavac/public_html/vqmod/vqcache/vq2-catalog_controller_module_product_tab.php on line 35
2015-10-27 6:47:43 - PHP Warning:  Invalid argument supplied for foreach() in /home/svatavac/public_html/vqmod/vqcache/vq2-catalog_controller_module_product_tab.php on line 35
2015-10-27 7:10:48 - PHP Warning:  Invalid argument supplied for foreach() in /home/svatavac/public_html/vqmod/vqcache/vq2-catalog_controller_module_product_tab.php on line 35
2015-10-27 7:11:20 - PHP Warning:  Invalid argument supplied for foreach() in /home/svatavac/public_html/vqmod/vqcache/vq2-catalog_controller_module_product_tab.php on line 35
2015-10-29 9:38:17 - PHP Notice:  Undefined index: bits in /home/svatavac/public_html/vqmod/vqcache/vq2-system_library_image.php on line 16
2015-10-29 13:12:35 - PHP Notice:  Undefined variable: imagewidth in /home/svatavac/public_html/vqmod/vqcache/vq2-catalog_controller_product_search.php on line 296
2015-10-29 13:12:36 - PHP Notice:  Undefined variable: imageheight in /home/svatavac/public_html/vqmod/vqcache/vq2-catalog_controller_product_search.php on line 297
2015-10-29 13:12:36 - PHP Notice:  Undefined variable: imagewidth in /home/svatavac/public_html/vqmod/vqcache/vq2-catalog_controller_product_search.php on line 296
2015-10-29 13:12:36 - PHP Notice:  Undefined variable: imageheight in /home/svatavac/public_html/vqmod/vqcache/vq2-catalog_controller_product_search.php on line 297
2015-10-29 13:12:36 - PHP Notice:  Undefined variable: imagewidth in /home/svatavac/public_html/vqmod/vqcache/vq2-catalog_controller_product_search.php on line 296
2015-10-29 13:12:36 - PHP Notice:  Undefined variable: imageheight in /home/svatavac/public_html/vqmod/vqcache/vq2-catalog_controller_product_search.php on line 297
2015-10-29 13:12:36 - PHP Notice:  Undefined variable: imagewidth in /home/svatavac/public_html/vqmod/vqcache/vq2-catalog_controller_product_search.php on line 296
2015-10-29 13:12:36 - PHP Notice:  Undefined variable: imageheight in /home/svatavac/public_html/vqmod/vqcache/vq2-catalog_controller_product_search.php on line 297
2015-10-29 13:12:36 - PHP Notice:  Undefined variable: imagewidth in /home/svatavac/public_html/vqmod/vqcache/vq2-catalog_controller_product_search.php on line 296
2015-10-29 13:12:36 - PHP Notice:  Undefined variable: imageheight in /home/svatavac/public_html/vqmod/vqcache/vq2-catalog_controller_product_search.php on line 297
2015-10-29 13:12:36 - PHP Notice:  Undefined variable: imagewidth in /home/svatavac/public_html/vqmod/vqcache/vq2-catalog_controller_product_search.php on line 296
2015-10-29 13:12:36 - PHP Notice:  Undefined variable: imageheight in /home/svatavac/public_html/vqmod/vqcache/vq2-catalog_controller_product_search.php on line 297
2015-10-29 13:12:36 - PHP Notice:  Undefined variable: imagewidth in /home/svatavac/public_html/vqmod/vqcache/vq2-catalog_controller_product_search.php on line 296
2015-10-29 13:12:36 - PHP Notice:  Undefined variable: imageheight in /home/svatavac/public_html/vqmod/vqcache/vq2-catalog_controller_product_search.php on line 297
2015-10-29 13:12:36 - PHP Notice:  Undefined variable: imagewidth in /home/svatavac/public_html/vqmod/vqcache/vq2-catalog_controller_product_search.php on line 296
2015-10-29 13:12:36 - PHP Notice:  Undefined variable: imageheight in /home/svatavac/public_html/vqmod/vqcache/vq2-catalog_controller_product_search.php on line 297
2015-10-29 13:12:36 - PHP Notice:  Undefined variable: imagewidth in /home/svatavac/public_html/vqmod/vqcache/vq2-catalog_controller_product_search.php on line 296
2015-10-29 13:12:36 - PHP Notice:  Undefined variable: imageheight in /home/svatavac/public_html/vqmod/vqcache/vq2-catalog_controller_product_search.php on line 297
2015-10-29 13:12:36 - PHP Notice:  Undefined variable: imagewidth in /home/svatavac/public_html/vqmod/vqcache/vq2-catalog_controller_product_search.php on line 296
2015-10-29 13:12:36 - PHP Notice:  Undefined variable: imageheight in /home/svatavac/public_html/vqmod/vqcache/vq2-catalog_controller_product_search.php on line 297
2015-10-29 13:12:36 - PHP Notice:  Undefined variable: imagewidth in /home/svatavac/public_html/vqmod/vqcache/vq2-catalog_controller_product_search.php on line 296
2015-10-29 13:12:36 - PHP Notice:  Undefined variable: imageheight in /home/svatavac/public_html/vqmod/vqcache/vq2-catalog_controller_product_search.php on line 297
2015-10-29 13:12:36 - PHP Notice:  Undefined variable: imagewidth in /home/svatavac/public_html/vqmod/vqcache/vq2-catalog_controller_product_search.php on line 296
2015-10-29 13:12:36 - PHP Notice:  Undefined variable: imageheight in /home/svatavac/public_html/vqmod/vqcache/vq2-catalog_controller_product_search.php on line 297
2015-10-29 13:12:36 - PHP Notice:  Undefined variable: imagewidth in /home/svatavac/public_html/vqmod/vqcache/vq2-catalog_controller_product_search.php on line 296
2015-10-29 13:12:36 - PHP Notice:  Undefined variable: imageheight in /home/svatavac/public_html/vqmod/vqcache/vq2-catalog_controller_product_search.php on line 297
2015-10-29 13:12:36 - PHP Notice:  Undefined variable: imagewidth in /home/svatavac/public_html/vqmod/vqcache/vq2-catalog_controller_product_search.php on line 296
2015-10-29 13:12:36 - PHP Notice:  Undefined variable: imageheight in /home/svatavac/public_html/vqmod/vqcache/vq2-catalog_controller_product_search.php on line 297
2015-10-29 13:12:36 - PHP Notice:  Undefined variable: imagewidth in /home/svatavac/public_html/vqmod/vqcache/vq2-catalog_controller_product_search.php on line 296
2015-10-29 13:12:36 - PHP Notice:  Undefined variable: imageheight in /home/svatavac/public_html/vqmod/vqcache/vq2-catalog_controller_product_search.php on line 297
2015-10-29 15:59:01 - PHP Notice:  Undefined variable: sticker in /home/svatavac/public_html/vqmod/vqcache/vq2-catalog_view_theme_default_template_product_product.tpl on line 65
2015-10-29 16:12:01 - PHP Notice:  Undefined variable: sticker in /home/svatavac/public_html/vqmod/vqcache/vq2-catalog_view_theme_default_template_product_product.tpl on line 65
2015-11-04 14:10:18 - PHP Notice:  iconv(): Detected an illegal character in input string in /home/svatavac/public_html/admin/controller/module/csvprice_pro.php on line 602
2015-12-08 1:57:41 - PHP Notice:  Undefined variable: quantity in /home/labemol/pets-house.co.ua/www/catalog/view/theme/default/template/product/product.tpl on line 147
2015-12-08 2:06:34 - PHP Notice:  Undefined variable: quantity in /home/labemol/pets-house.co.ua/www/catalog/view/theme/default/template/product/product.tpl on line 147
2015-12-08 3:05:58 - PHP Notice:  Undefined variable: quantity in /home/labemol/pets-house.co.ua/www/catalog/view/theme/default/template/product/product.tpl on line 147
2015-12-08 3:10:17 - PHP Notice:  Undefined variable: quantity in /home/labemol/pets-house.co.ua/www/catalog/view/theme/default/template/product/product.tpl on line 147
2015-12-08 3:30:56 - PHP Notice:  Undefined variable: quantity in /home/labemol/pets-house.co.ua/www/catalog/view/theme/default/template/product/product.tpl on line 147
2015-12-08 3:34:45 - PHP Notice:  Undefined variable: quantity in /home/labemol/pets-house.co.ua/www/catalog/view/theme/default/template/product/product.tpl on line 147
2015-12-08 3:48:43 - PHP Notice:  Undefined variable: quantity in /home/labemol/pets-house.co.ua/www/catalog/view/theme/default/template/product/product.tpl on line 147
2015-12-08 3:53:27 - PHP Notice:  Undefined variable: quantity in /home/labemol/pets-house.co.ua/www/catalog/view/theme/default/template/product/product.tpl on line 147
2015-12-08 4:55:34 - PHP Notice:  Undefined variable: quantity in /home/labemol/pets-house.co.ua/www/catalog/view/theme/default/template/product/product.tpl on line 147
2015-12-08 5:01:19 - PHP Notice:  Undefined variable: quantity in /home/labemol/pets-house.co.ua/www/catalog/view/theme/default/template/product/product.tpl on line 147
2015-12-08 5:13:55 - PHP Notice:  Undefined variable: quantity in /home/labemol/pets-house.co.ua/www/catalog/view/theme/default/template/product/product.tpl on line 147
2015-12-08 5:44:14 - PHP Notice:  Undefined variable: quantity in /home/labemol/pets-house.co.ua/www/catalog/view/theme/default/template/product/product.tpl on line 147
2015-12-08 6:11:33 - PHP Notice:  Undefined variable: quantity in /home/labemol/pets-house.co.ua/www/catalog/view/theme/default/template/product/product.tpl on line 147
2015-12-08 6:30:18 - PHP Notice:  Undefined variable: quantity in /home/labemol/pets-house.co.ua/www/catalog/view/theme/default/template/product/product.tpl on line 147
2015-12-08 6:54:57 - PHP Notice:  Undefined variable: quantity in /home/labemol/pets-house.co.ua/www/catalog/view/theme/default/template/product/product.tpl on line 147
2015-12-08 7:23:25 - PHP Notice:  Undefined variable: quantity in /home/labemol/pets-house.co.ua/www/catalog/view/theme/default/template/product/product.tpl on line 147
2015-12-08 7:28:04 - PHP Notice:  Undefined variable: quantity in /home/labemol/pets-house.co.ua/www/catalog/view/theme/default/template/product/product.tpl on line 147
2015-12-08 7:36:29 - PHP Notice:  Undefined variable: quantity in /home/labemol/pets-house.co.ua/www/catalog/view/theme/default/template/product/product.tpl on line 147
2015-12-08 7:49:06 - PHP Notice:  Undefined variable: quantity in /home/labemol/pets-house.co.ua/www/catalog/view/theme/default/template/product/product.tpl on line 147
2015-12-08 8:05:29 - PHP Notice:  Undefined variable: quantity in /home/labemol/pets-house.co.ua/www/catalog/view/theme/default/template/product/product.tpl on line 147
2015-12-08 8:11:56 - PHP Notice:  Undefined variable: quantity in /home/labemol/pets-house.co.ua/www/catalog/view/theme/default/template/product/product.tpl on line 147
2015-12-08 8:24:47 - PHP Notice:  Undefined variable: quantity in /home/labemol/pets-house.co.ua/www/catalog/view/theme/default/template/product/product.tpl on line 147
2015-12-08 8:30:53 - PHP Notice:  Undefined variable: quantity in /home/labemol/pets-house.co.ua/www/catalog/view/theme/default/template/product/product.tpl on line 147
2015-12-08 8:58:23 - PHP Notice:  Undefined variable: quantity in /home/labemol/pets-house.co.ua/www/catalog/view/theme/default/template/product/product.tpl on line 147
2015-12-08 9:05:37 - PHP Notice:  Undefined variable: quantity in /home/labemol/pets-house.co.ua/www/catalog/view/theme/default/template/product/product.tpl on line 147
2015-12-08 9:36:16 - PHP Notice:  Undefined variable: quantity in /home/labemol/pets-house.co.ua/www/catalog/view/theme/default/template/product/product.tpl on line 147
2015-12-08 9:48:34 - PHP Notice:  Undefined variable: quantity in /home/labemol/pets-house.co.ua/www/catalog/view/theme/default/template/product/product.tpl on line 147
2015-12-08 9:49:15 - PHP Notice:  Undefined variable: quantity in /home/labemol/pets-house.co.ua/www/catalog/view/theme/default/template/product/product.tpl on line 147
2015-12-08 9:55:47 - PHP Notice:  Undefined variable: quantity in /home/labemol/pets-house.co.ua/www/catalog/view/theme/default/template/product/product.tpl on line 147
2015-12-08 10:29:16 - PHP Notice:  Undefined variable: quantity in /home/labemol/pets-house.co.ua/www/catalog/view/theme/default/template/product/product.tpl on line 147
2015-12-08 10:43:30 - PHP Notice:  Undefined variable: quantity in /home/labemol/pets-house.co.ua/www/catalog/view/theme/default/template/product/product.tpl on line 147
2015-12-08 10:45:56 - PHP Notice:  Undefined variable: quantity in /home/labemol/pets-house.co.ua/www/catalog/view/theme/default/template/product/product.tpl on line 147
2015-12-08 10:59:13 - PHP Notice:  Undefined variable: quantity in /home/labemol/pets-house.co.ua/www/catalog/view/theme/default/template/product/product.tpl on line 147
2015-12-08 11:13:40 - PHP Notice:  Undefined variable: quantity in /home/labemol/pets-house.co.ua/www/catalog/view/theme/default/template/product/product.tpl on line 147
2015-12-08 12:11:52 - PHP Notice:  Undefined variable: quantity in /home/labemol/pets-house.co.ua/www/catalog/view/theme/default/template/product/product.tpl on line 147
2015-12-08 12:41:03 - PHP Notice:  Undefined variable: quantity in /home/labemol/pets-house.co.ua/www/catalog/view/theme/default/template/product/product.tpl on line 147
2015-12-08 13:20:19 - PHP Notice:  Undefined variable: quantity in /home/labemol/pets-house.co.ua/www/catalog/view/theme/default/template/product/product.tpl on line 147
2015-12-08 14:09:19 - PHP Notice:  Undefined variable: quantity in /home/labemol/pets-house.co.ua/www/catalog/view/theme/default/template/product/product.tpl on line 147
2015-12-08 14:21:25 - PHP Notice:  Undefined variable: quantity in /home/labemol/pets-house.co.ua/www/catalog/view/theme/default/template/product/product.tpl on line 147
2015-12-08 15:54:43 - PHP Notice:  Undefined variable: quantity in /home/labemol/pets-house.co.ua/www/catalog/view/theme/default/template/product/product.tpl on line 147
2015-12-08 16:35:39 - PHP Notice:  Undefined variable: quantity in /home/labemol/pets-house.co.ua/www/catalog/view/theme/default/template/product/product.tpl on line 147
2015-12-08 17:40:40 - PHP Notice:  Undefined variable: quantity in /home/labemol/pets-house.co.ua/www/catalog/view/theme/default/template/product/product.tpl on line 147
2015-12-08 17:51:40 - PHP Notice:  Undefined variable: quantity in /home/labemol/pets-house.co.ua/www/catalog/view/theme/default/template/product/product.tpl on line 147
2015-12-08 18:57:20 - PHP Notice:  Undefined variable: quantity in /home/labemol/pets-house.co.ua/www/catalog/view/theme/default/template/product/product.tpl on line 147
2015-12-08 19:10:15 - PHP Notice:  Undefined variable: quantity in /home/labemol/pets-house.co.ua/www/catalog/view/theme/default/template/product/product.tpl on line 147
2015-12-08 20:38:46 - PHP Notice:  Undefined variable: quantity in /home/labemol/pets-house.co.ua/www/catalog/view/theme/default/template/product/product.tpl on line 147
2015-12-08 21:38:59 - PHP Notice:  Undefined variable: quantity in /home/labemol/pets-house.co.ua/www/catalog/view/theme/default/template/product/product.tpl on line 147
2015-12-08 22:09:23 - PHP Notice:  Undefined variable: quantity in /home/labemol/pets-house.co.ua/www/catalog/view/theme/default/template/product/product.tpl on line 147
2015-12-08 22:53:14 - PHP Notice:  Undefined variable: quantity in /home/labemol/pets-house.co.ua/www/catalog/view/theme/default/template/product/product.tpl on line 147
2015-12-09 0:19:31 - PHP Notice:  Undefined variable: quantity in /home/labemol/pets-house.co.ua/www/catalog/view/theme/default/template/product/product.tpl on line 147
2015-12-09 0:24:43 - PHP Notice:  Undefined variable: quantity in /home/labemol/pets-house.co.ua/www/catalog/view/theme/default/template/product/product.tpl on line 147
2015-12-09 1:01:46 - PHP Notice:  Undefined variable: quantity in /home/labemol/pets-house.co.ua/www/catalog/view/theme/default/template/product/product.tpl on line 147
2015-12-09 1:14:39 - PHP Notice:  Undefined variable: quantity in /home/labemol/pets-house.co.ua/www/catalog/view/theme/default/template/product/product.tpl on line 147
2015-12-09 2:31:35 - PHP Notice:  Undefined variable: quantity in /home/labemol/pets-house.co.ua/www/catalog/view/theme/default/template/product/product.tpl on line 147
2015-12-09 3:01:55 - PHP Notice:  Undefined variable: quantity in /home/labemol/pets-house.co.ua/www/catalog/view/theme/default/template/product/product.tpl on line 147
2015-12-09 3:45:18 - PHP Notice:  Undefined variable: quantity in /home/labemol/pets-house.co.ua/www/catalog/view/theme/default/template/product/product.tpl on line 147
2015-12-09 5:20:31 - PHP Notice:  Undefined variable: quantity in /home/labemol/pets-house.co.ua/www/catalog/view/theme/default/template/product/product.tpl on line 147
2015-12-09 6:36:35 - PHP Notice:  Undefined variable: quantity in /home/labemol/pets-house.co.ua/www/catalog/view/theme/default/template/product/product.tpl on line 147
2015-12-09 6:47:46 - PHP Notice:  Undefined variable: quantity in /home/labemol/pets-house.co.ua/www/catalog/view/theme/default/template/product/product.tpl on line 147
2015-12-09 7:05:03 - PHP Notice:  Undefined variable: quantity in /home/labemol/pets-house.co.ua/www/catalog/view/theme/default/template/product/product.tpl on line 147
2015-12-09 7:30:44 - PHP Notice:  Undefined variable: quantity in /home/labemol/pets-house.co.ua/www/catalog/view/theme/default/template/product/product.tpl on line 147
2015-12-09 7:54:25 - PHP Notice:  Undefined variable: quantity in /home/labemol/pets-house.co.ua/www/catalog/view/theme/default/template/product/product.tpl on line 147
2015-12-09 8:14:07 - PHP Notice:  Undefined variable: quantity in /home/labemol/pets-house.co.ua/www/catalog/view/theme/default/template/product/product.tpl on line 147
2015-12-09 8:41:38 - PHP Notice:  Undefined variable: quantity in /home/labemol/pets-house.co.ua/www/catalog/view/theme/default/template/product/product.tpl on line 147
2015-12-09 9:14:19 - PHP Notice:  Undefined variable: quantity in /home/labemol/pets-house.co.ua/www/catalog/view/theme/default/template/product/product.tpl on line 147
2015-12-09 9:55:30 - PHP Notice:  Undefined variable: quantity in /home/labemol/pets-house.co.ua/www/catalog/view/theme/default/template/product/product.tpl on line 147
2015-12-09 10:19:45 - PHP Notice:  Undefined variable: quantity in /home/labemol/pets-house.co.ua/www/catalog/view/theme/default/template/product/product.tpl on line 147
2015-12-09 10:26:45 - PHP Notice:  Undefined variable: quantity in /home/labemol/pets-house.co.ua/www/catalog/view/theme/default/template/product/product.tpl on line 147
2015-12-09 11:18:39 - PHP Notice:  Undefined variable: quantity in /home/labemol/pets-house.co.ua/www/catalog/view/theme/default/template/product/product.tpl on line 147
2015-12-09 11:32:32 - PHP Notice:  Undefined variable: quantity in /home/labemol/pets-house.co.ua/www/catalog/view/theme/default/template/product/product.tpl on line 147
2015-12-09 11:46:05 - PHP Notice:  Undefined variable: quantity in /home/labemol/pets-house.co.ua/www/catalog/view/theme/default/template/product/product.tpl on line 147
2015-12-09 12:08:29 - PHP Notice:  Undefined variable: quantity in /home/labemol/pets-house.co.ua/www/catalog/view/theme/default/template/product/product.tpl on line 147
2015-12-09 12:43:01 - PHP Notice:  Undefined variable: quantity in /home/labemol/pets-house.co.ua/www/catalog/view/theme/default/template/product/product.tpl on line 147
2015-12-09 13:24:05 - PHP Notice:  Undefined variable: quantity in /home/labemol/pets-house.co.ua/www/catalog/view/theme/default/template/product/product.tpl on line 147
2015-12-09 13:37:14 - PHP Notice:  Undefined variable: quantity in /home/labemol/pets-house.co.ua/www/catalog/view/theme/default/template/product/product.tpl on line 147
2015-12-09 13:45:33 - PHP Notice:  Undefined variable: quantity in /home/labemol/pets-house.co.ua/www/catalog/view/theme/default/template/product/product.tpl on line 147
2015-12-09 13:53:31 - PHP Notice:  Undefined variable: quantity in /home/labemol/pets-house.co.ua/www/catalog/view/theme/default/template/product/product.tpl on line 147
2015-12-09 13:57:14 - PHP Notice:  Undefined variable: quantity in /home/labemol/pets-house.co.ua/www/catalog/view/theme/default/template/product/product.tpl on line 147
2015-12-09 14:36:58 - PHP Notice:  Undefined variable: quantity in /home/labemol/pets-house.co.ua/www/catalog/view/theme/default/template/product/product.tpl on line 147
2015-12-09 14:53:46 - PHP Notice:  Undefined variable: quantity in /home/labemol/pets-house.co.ua/www/catalog/view/theme/default/template/product/product.tpl on line 147
2015-12-09 15:52:41 - PHP Notice:  Undefined variable: quantity in /home/labemol/pets-house.co.ua/www/catalog/view/theme/default/template/product/product.tpl on line 147
2015-12-09 16:06:20 - PHP Notice:  Undefined variable: quantity in /home/labemol/pets-house.co.ua/www/catalog/view/theme/default/template/product/product.tpl on line 147
2015-12-09 19:28:00 - PHP Notice:  Undefined variable: quantity in /home/labemol/pets-house.co.ua/www/catalog/view/theme/default/template/product/product.tpl on line 147
2015-12-09 20:00:49 - PHP Notice:  Undefined variable: quantity in /home/labemol/pets-house.co.ua/www/catalog/view/theme/default/template/product/product.tpl on line 147
2015-12-09 21:44:24 - PHP Notice:  Undefined variable: quantity in /home/labemol/pets-house.co.ua/www/catalog/view/theme/default/template/product/product.tpl on line 147
2015-12-09 21:53:48 - PHP Notice:  Undefined variable: quantity in /home/labemol/pets-house.co.ua/www/catalog/view/theme/default/template/product/product.tpl on line 147
2015-12-09 22:02:24 - PHP Notice:  Undefined variable: quantity in /home/labemol/pets-house.co.ua/www/catalog/view/theme/default/template/product/product.tpl on line 147
2015-12-09 23:09:27 - PHP Notice:  Undefined variable: quantity in /home/labemol/pets-house.co.ua/www/catalog/view/theme/default/template/product/product.tpl on line 147
2015-12-09 23:23:49 - PHP Notice:  Undefined variable: quantity in /home/labemol/pets-house.co.ua/www/catalog/view/theme/default/template/product/product.tpl on line 147
2015-12-09 23:31:26 - PHP Notice:  Undefined variable: quantity in /home/labemol/pets-house.co.ua/www/catalog/view/theme/default/template/product/product.tpl on line 147
2015-12-09 23:35:07 - PHP Notice:  Undefined variable: quantity in /home/labemol/pets-house.co.ua/www/catalog/view/theme/default/template/product/product.tpl on line 147
2015-12-10 0:58:27 - PHP Notice:  Undefined variable: quantity in /home/labemol/pets-house.co.ua/www/catalog/view/theme/default/template/product/product.tpl on line 147
2015-12-10 1:11:47 - PHP Notice:  Undefined variable: quantity in /home/labemol/pets-house.co.ua/www/catalog/view/theme/default/template/product/product.tpl on line 147
2015-12-10 2:22:29 - PHP Notice:  Undefined variable: quantity in /home/labemol/pets-house.co.ua/www/catalog/view/theme/default/template/product/product.tpl on line 147
2015-12-10 3:04:56 - PHP Notice:  Undefined variable: quantity in /home/labemol/pets-house.co.ua/www/catalog/view/theme/default/template/product/product.tpl on line 147
2015-12-10 3:52:10 - PHP Notice:  Undefined variable: quantity in /home/labemol/pets-house.co.ua/www/catalog/view/theme/default/template/product/product.tpl on line 147
2015-12-10 3:57:47 - PHP Notice:  Undefined variable: quantity in /home/labemol/pets-house.co.ua/www/catalog/view/theme/default/template/product/product.tpl on line 147
2015-12-10 4:36:22 - PHP Notice:  Undefined variable: quantity in /home/labemol/pets-house.co.ua/www/catalog/view/theme/default/template/product/product.tpl on line 147
2015-12-10 5:18:25 - PHP Notice:  Undefined variable: quantity in /home/labemol/pets-house.co.ua/www/catalog/view/theme/default/template/product/product.tpl on line 147
2015-12-10 6:03:04 - PHP Notice:  Undefined variable: quantity in /home/labemol/pets-house.co.ua/www/catalog/view/theme/default/template/product/product.tpl on line 147
2015-12-10 6:10:23 - PHP Notice:  Undefined variable: quantity in /home/labemol/pets-house.co.ua/www/catalog/view/theme/default/template/product/product.tpl on line 147
2015-12-10 7:27:33 - PHP Notice:  Undefined variable: quantity in /home/labemol/pets-house.co.ua/www/catalog/view/theme/default/template/product/product.tpl on line 147
2015-12-10 7:34:04 - PHP Notice:  Undefined variable: quantity in /home/labemol/pets-house.co.ua/www/catalog/view/theme/default/template/product/product.tpl on line 147
2015-12-10 7:49:40 - PHP Notice:  Undefined variable: quantity in /home/labemol/pets-house.co.ua/www/catalog/view/theme/default/template/product/product.tpl on line 147
2015-12-10 7:56:38 - PHP Notice:  Undefined variable: quantity in /home/labemol/pets-house.co.ua/www/catalog/view/theme/default/template/product/product.tpl on line 147
2015-12-10 8:00:06 - PHP Notice:  Undefined variable: quantity in /home/labemol/pets-house.co.ua/www/catalog/view/theme/default/template/product/product.tpl on line 147
2015-12-10 10:19:31 - PHP Notice:  Undefined variable: quantity in /home/labemol/pets-house.co.ua/www/catalog/view/theme/default/template/product/product.tpl on line 147
2015-12-10 11:44:53 - PHP Notice:  Undefined variable: quantity in /home/labemol/pets-house.co.ua/www/catalog/view/theme/default/template/product/product.tpl on line 147
2015-12-10 11:57:29 - PHP Notice:  Undefined variable: quantity in /home/labemol/pets-house.co.ua/www/catalog/view/theme/default/template/product/product.tpl on line 147
2015-12-10 12:30:05 - PHP Notice:  Undefined variable: quantity in /home/labemol/pets-house.co.ua/www/catalog/view/theme/default/template/product/product.tpl on line 147
2015-12-10 13:29:14 - PHP Notice:  Undefined variable: quantity in /home/labemol/pets-house.co.ua/www/catalog/view/theme/default/template/product/product.tpl on line 147
2015-12-10 14:00:06 - PHP Notice:  Undefined variable: quantity in /home/labemol/pets-house.co.ua/www/catalog/view/theme/default/template/product/product.tpl on line 147
2015-12-10 14:08:41 - PHP Notice:  Undefined variable: quantity in /home/labemol/pets-house.co.ua/www/catalog/view/theme/default/template/product/product.tpl on line 147
2015-12-10 14:39:18 - PHP Notice:  Undefined variable: quantity in /home/labemol/pets-house.co.ua/www/catalog/view/theme/default/template/product/product.tpl on line 147
2015-12-10 15:35:01 - PHP Notice:  Undefined variable: quantity in /home/labemol/pets-house.co.ua/www/catalog/view/theme/default/template/product/product.tpl on line 147
2015-12-10 15:54:25 - PHP Notice:  Undefined variable: quantity in /home/labemol/pets-house.co.ua/www/catalog/view/theme/default/template/product/product.tpl on line 147
2015-12-10 17:52:04 - PHP Notice:  Undefined variable: quantity in /home/labemol/pets-house.co.ua/www/catalog/view/theme/default/template/product/product.tpl on line 147
2015-12-10 18:18:53 - PHP Notice:  Undefined variable: quantity in /home/labemol/pets-house.co.ua/www/catalog/view/theme/default/template/product/product.tpl on line 147
2015-12-10 18:43:32 - PHP Notice:  Undefined variable: quantity in /home/labemol/pets-house.co.ua/www/catalog/view/theme/default/template/product/product.tpl on line 147
2015-12-10 19:24:07 - PHP Notice:  Undefined variable: quantity in /home/labemol/pets-house.co.ua/www/catalog/view/theme/default/template/product/product.tpl on line 147
2015-12-10 20:46:30 - PHP Notice:  Undefined variable: quantity in /home/labemol/pets-house.co.ua/www/catalog/view/theme/default/template/product/product.tpl on line 147
2015-12-10 21:15:17 - PHP Notice:  Undefined variable: quantity in /home/labemol/pets-house.co.ua/www/catalog/view/theme/default/template/product/product.tpl on line 147
2015-12-10 21:24:25 - PHP Notice:  Undefined variable: quantity in /home/labemol/pets-house.co.ua/www/catalog/view/theme/default/template/product/product.tpl on line 147
2015-12-10 21:35:36 - PHP Notice:  Undefined variable: quantity in /home/labemol/pets-house.co.ua/www/catalog/view/theme/default/template/product/product.tpl on line 147
2015-12-10 23:12:08 - PHP Notice:  Undefined variable: quantity in /home/labemol/pets-house.co.ua/www/catalog/view/theme/default/template/product/product.tpl on line 147
2015-12-10 23:37:28 - PHP Notice:  Undefined variable: quantity in /home/labemol/pets-house.co.ua/www/catalog/view/theme/default/template/product/product.tpl on line 147
2015-12-11 0:34:12 - PHP Notice:  Undefined variable: quantity in /home/labemol/pets-house.co.ua/www/catalog/view/theme/default/template/product/product.tpl on line 147
2015-12-11 0:44:18 - PHP Notice:  Undefined variable: quantity in /home/labemol/pets-house.co.ua/www/catalog/view/theme/default/template/product/product.tpl on line 147
2015-12-11 1:16:43 - PHP Notice:  Undefined variable: quantity in /home/labemol/pets-house.co.ua/www/catalog/view/theme/default/template/product/product.tpl on line 147
2015-12-11 1:49:33 - PHP Notice:  Undefined variable: quantity in /home/labemol/pets-house.co.ua/www/catalog/view/theme/default/template/product/product.tpl on line 147
2015-12-11 3:10:08 - PHP Notice:  Undefined variable: quantity in /home/labemol/pets-house.co.ua/www/catalog/view/theme/default/template/product/product.tpl on line 147
2015-12-11 3:26:54 - PHP Notice:  Undefined variable: quantity in /home/labemol/pets-house.co.ua/www/catalog/view/theme/default/template/product/product.tpl on line 147
2015-12-11 3:34:58 - PHP Notice:  Undefined variable: quantity in /home/labemol/pets-house.co.ua/www/catalog/view/theme/default/template/product/product.tpl on line 147
2015-12-11 5:17:00 - PHP Notice:  Undefined variable: quantity in /home/labemol/pets-house.co.ua/www/catalog/view/theme/default/template/product/product.tpl on line 147
2015-12-11 5:40:44 - PHP Notice:  Undefined variable: quantity in /home/labemol/pets-house.co.ua/www/catalog/view/theme/default/template/product/product.tpl on line 147
2015-12-11 6:13:38 - PHP Notice:  Undefined variable: quantity in /home/labemol/pets-house.co.ua/www/catalog/view/theme/default/template/product/product.tpl on line 147
2015-12-11 6:41:13 - PHP Notice:  Undefined variable: quantity in /home/labemol/pets-house.co.ua/www/catalog/view/theme/default/template/product/product.tpl on line 147
2015-12-11 7:32:24 - PHP Notice:  Undefined variable: quantity in /home/labemol/pets-house.co.ua/www/catalog/view/theme/default/template/product/product.tpl on line 147
2015-12-11 8:19:49 - PHP Notice:  Undefined variable: quantity in /home/labemol/pets-house.co.ua/www/catalog/view/theme/default/template/product/product.tpl on line 147
2015-12-11 8:42:30 - PHP Notice:  Undefined variable: quantity in /home/labemol/pets-house.co.ua/www/catalog/view/theme/default/template/product/product.tpl on line 147
2015-12-11 9:35:57 - PHP Notice:  Undefined variable: quantity in /home/labemol/pets-house.co.ua/www/catalog/view/theme/default/template/product/product.tpl on line 147
2015-12-11 9:46:37 - PHP Notice:  Undefined variable: quantity in /home/labemol/pets-house.co.ua/www/catalog/view/theme/default/template/product/product.tpl on line 147
2015-12-11 10:21:59 - PHP Notice:  Undefined variable: quantity in /home/labemol/pets-house.co.ua/www/catalog/view/theme/default/template/product/product.tpl on line 147
2015-12-11 11:20:01 - PHP Notice:  Undefined variable: quantity in /home/labemol/pets-house.co.ua/www/catalog/view/theme/default/template/product/product.tpl on line 147
2015-12-11 11:34:17 - PHP Notice:  Undefined variable: quantity in /home/labemol/pets-house.co.ua/www/catalog/view/theme/default/template/product/product.tpl on line 147
2015-12-11 12:03:54 - PHP Notice:  Undefined variable: quantity in /home/labemol/pets-house.co.ua/www/catalog/view/theme/default/template/product/product.tpl on line 147
2015-12-11 12:12:14 - PHP Notice:  Undefined variable: quantity in /home/labemol/pets-house.co.ua/www/catalog/view/theme/default/template/product/product.tpl on line 147
2015-12-11 12:18:09 - PHP Notice:  Undefined variable: quantity in /home/labemol/pets-house.co.ua/www/catalog/view/theme/default/template/product/product.tpl on line 147
2015-12-11 12:29:53 - PHP Notice:  Undefined variable: quantity in /home/labemol/pets-house.co.ua/www/catalog/view/theme/default/template/product/product.tpl on line 147
2015-12-11 12:43:25 - PHP Notice:  Undefined variable: quantity in /home/labemol/pets-house.co.ua/www/catalog/view/theme/default/template/product/product.tpl on line 147
2015-12-11 12:45:16 - PHP Notice:  Undefined variable: quantity in /home/labemol/pets-house.co.ua/www/catalog/view/theme/default/template/product/product.tpl on line 147
2015-12-11 12:55:26 - PHP Notice:  Undefined variable: quantity in /home/labemol/pets-house.co.ua/www/catalog/view/theme/default/template/product/product.tpl on line 147
2015-12-11 13:30:11 - PHP Notice:  Undefined variable: quantity in /home/labemol/pets-house.co.ua/www/catalog/view/theme/default/template/product/product.tpl on line 147
2015-12-11 13:40:13 - PHP Notice:  Undefined variable: quantity in /home/labemol/pets-house.co.ua/www/catalog/view/theme/default/template/product/product.tpl on line 147
2015-12-11 13:52:08 - PHP Notice:  Undefined variable: quantity in /home/labemol/pets-house.co.ua/www/catalog/view/theme/default/template/product/product.tpl on line 147
2015-12-11 13:54:09 - PHP Notice:  Undefined variable: quantity in /home/labemol/pets-house.co.ua/www/catalog/view/theme/default/template/product/product.tpl on line 147
2015-12-11 14:12:13 - PHP Notice:  Undefined variable: quantity in /home/labemol/pets-house.co.ua/www/catalog/view/theme/default/template/product/product.tpl on line 147
2015-12-11 14:22:15 - PHP Notice:  Undefined variable: quantity in /home/labemol/pets-house.co.ua/www/catalog/view/theme/default/template/product/product.tpl on line 147
2015-12-11 14:33:33 - PHP Notice:  Undefined variable: quantity in /home/labemol/pets-house.co.ua/www/catalog/view/theme/default/template/product/product.tpl on line 147
2015-12-11 14:41:04 - PHP Notice:  Undefined variable: quantity in /home/labemol/pets-house.co.ua/www/catalog/view/theme/default/template/product/product.tpl on line 147
2015-12-11 15:05:50 - PHP Notice:  Undefined variable: quantity in /home/labemol/pets-house.co.ua/www/catalog/view/theme/default/template/product/product.tpl on line 147
2015-12-11 15:13:08 - PHP Notice:  Undefined variable: quantity in /home/labemol/pets-house.co.ua/www/catalog/view/theme/default/template/product/product.tpl on line 147
2015-12-11 15:17:41 - PHP Notice:  Undefined variable: quantity in /home/labemol/pets-house.co.ua/www/catalog/view/theme/default/template/product/product.tpl on line 147
2015-12-11 15:26:23 - PHP Notice:  Undefined variable: quantity in /home/labemol/pets-house.co.ua/www/catalog/view/theme/default/template/product/product.tpl on line 147
2015-12-11 15:45:40 - PHP Notice:  Undefined variable: quantity in /home/labemol/pets-house.co.ua/www/catalog/view/theme/default/template/product/product.tpl on line 147
2015-12-11 15:52:39 - PHP Notice:  Undefined variable: quantity in /home/labemol/pets-house.co.ua/www/catalog/view/theme/default/template/product/product.tpl on line 147
2015-12-11 15:58:01 - PHP Notice:  Undefined variable: quantity in /home/labemol/pets-house.co.ua/www/catalog/view/theme/default/template/product/product.tpl on line 147
2015-12-11 15:59:16 - PHP Notice:  Undefined variable: quantity in /home/labemol/pets-house.co.ua/www/catalog/view/theme/default/template/product/product.tpl on line 147
2015-12-11 16:28:26 - PHP Notice:  Undefined variable: quantity in /home/labemol/pets-house.co.ua/www/catalog/view/theme/default/template/product/product.tpl on line 147
2015-12-11 16:33:46 - PHP Notice:  Undefined variable: quantity in /home/labemol/pets-house.co.ua/www/catalog/view/theme/default/template/product/product.tpl on line 147
2015-12-11 16:39:48 - PHP Notice:  Undefined variable: quantity in /home/labemol/pets-house.co.ua/www/catalog/view/theme/default/template/product/product.tpl on line 147
2015-12-11 16:45:18 - PHP Notice:  Undefined variable: quantity in /home/labemol/pets-house.co.ua/www/catalog/view/theme/default/template/product/product.tpl on line 147
2015-12-11 16:56:08 - PHP Notice:  Undefined variable: quantity in /home/labemol/pets-house.co.ua/www/catalog/view/theme/default/template/product/product.tpl on line 147
2015-12-11 17:08:04 - PHP Notice:  Undefined variable: quantity in /home/labemol/pets-house.co.ua/www/catalog/view/theme/default/template/product/product.tpl on line 147
2015-12-11 17:14:06 - PHP Notice:  Undefined variable: quantity in /home/labemol/pets-house.co.ua/www/catalog/view/theme/default/template/product/product.tpl on line 147
2015-12-11 17:28:25 - PHP Notice:  Undefined variable: quantity in /home/labemol/pets-house.co.ua/www/catalog/view/theme/default/template/product/product.tpl on line 147
2015-12-11 18:40:17 - PHP Notice:  Undefined variable: quantity in /home/labemol/pets-house.co.ua/www/catalog/view/theme/default/template/product/product.tpl on line 147
2015-12-11 19:09:30 - PHP Notice:  Undefined variable: quantity in /home/labemol/pets-house.co.ua/www/catalog/view/theme/default/template/product/product.tpl on line 147
2015-12-11 19:33:06 - PHP Notice:  Undefined variable: quantity in /home/labemol/pets-house.co.ua/www/catalog/view/theme/default/template/product/product.tpl on line 147
2015-12-11 19:38:10 - PHP Notice:  Undefined variable: quantity in /home/labemol/pets-house.co.ua/www/catalog/view/theme/default/template/product/product.tpl on line 147
2015-12-11 19:43:21 - PHP Notice:  Undefined variable: quantity in /home/labemol/pets-house.co.ua/www/catalog/view/theme/default/template/product/product.tpl on line 147
2015-12-11 19:46:46 - PHP Notice:  Undefined variable: quantity in /home/labemol/pets-house.co.ua/www/catalog/view/theme/default/template/product/product.tpl on line 147
2015-12-11 19:54:32 - PHP Notice:  Undefined variable: quantity in /home/labemol/pets-house.co.ua/www/catalog/view/theme/default/template/product/product.tpl on line 147
2015-12-11 20:13:28 - PHP Notice:  Undefined variable: quantity in /home/labemol/pets-house.co.ua/www/catalog/view/theme/default/template/product/product.tpl on line 147
2015-12-11 20:18:58 - PHP Notice:  Undefined variable: quantity in /home/labemol/pets-house.co.ua/www/catalog/view/theme/default/template/product/product.tpl on line 147
2015-12-11 20:23:40 - PHP Notice:  Undefined variable: quantity in /home/labemol/pets-house.co.ua/www/catalog/view/theme/default/template/product/product.tpl on line 147
2015-12-11 20:45:32 - PHP Notice:  Undefined variable: quantity in /home/labemol/pets-house.co.ua/www/catalog/view/theme/default/template/product/product.tpl on line 147
2015-12-11 20:55:01 - PHP Notice:  Undefined variable: quantity in /home/labemol/pets-house.co.ua/www/catalog/view/theme/default/template/product/product.tpl on line 147
2015-12-11 21:18:16 - PHP Notice:  Undefined variable: quantity in /home/labemol/pets-house.co.ua/www/catalog/view/theme/default/template/product/product.tpl on line 147
2015-12-11 22:08:19 - PHP Notice:  Undefined variable: quantity in /home/labemol/pets-house.co.ua/www/catalog/view/theme/default/template/product/product.tpl on line 147
2015-12-11 22:18:41 - PHP Notice:  Undefined variable: quantity in /home/labemol/pets-house.co.ua/www/catalog/view/theme/default/template/product/product.tpl on line 147
2015-12-11 22:21:20 - PHP Notice:  Undefined variable: quantity in /home/labemol/pets-house.co.ua/www/catalog/view/theme/default/template/product/product.tpl on line 147
2015-12-11 22:35:39 - PHP Notice:  Undefined variable: quantity in /home/labemol/pets-house.co.ua/www/catalog/view/theme/default/template/product/product.tpl on line 147
2015-12-11 23:27:26 - PHP Notice:  Undefined variable: quantity in /home/labemol/pets-house.co.ua/www/catalog/view/theme/default/template/product/product.tpl on line 147
2015-12-11 23:51:23 - PHP Notice:  Undefined variable: quantity in /home/labemol/pets-house.co.ua/www/catalog/view/theme/default/template/product/product.tpl on line 147
2015-12-12 0:00:15 - PHP Notice:  Undefined variable: quantity in /home/labemol/pets-house.co.ua/www/catalog/view/theme/default/template/product/product.tpl on line 147
2015-12-12 0:07:56 - PHP Notice:  Undefined variable: quantity in /home/labemol/pets-house.co.ua/www/catalog/view/theme/default/template/product/product.tpl on line 147
2015-12-12 0:24:06 - PHP Notice:  Undefined variable: quantity in /home/labemol/pets-house.co.ua/www/catalog/view/theme/default/template/product/product.tpl on line 147
2015-12-12 0:53:47 - PHP Notice:  Undefined variable: quantity in /home/labemol/pets-house.co.ua/www/catalog/view/theme/default/template/product/product.tpl on line 147
2015-12-12 0:54:11 - PHP Notice:  Undefined variable: quantity in /home/labemol/pets-house.co.ua/www/catalog/view/theme/default/template/product/product.tpl on line 147
2015-12-12 1:27:30 - PHP Notice:  Undefined variable: quantity in /home/labemol/pets-house.co.ua/www/catalog/view/theme/default/template/product/product.tpl on line 147
2015-12-12 1:33:54 - PHP Notice:  Undefined variable: quantity in /home/labemol/pets-house.co.ua/www/catalog/view/theme/default/template/product/product.tpl on line 147
2015-12-12 1:54:22 - PHP Notice:  Undefined variable: quantity in /home/labemol/pets-house.co.ua/www/catalog/view/theme/default/template/product/product.tpl on line 147
2015-12-12 2:14:27 - PHP Notice:  Undefined variable: quantity in /home/labemol/pets-house.co.ua/www/catalog/view/theme/default/template/product/product.tpl on line 147
2015-12-12 2:24:55 - PHP Notice:  Undefined variable: quantity in /home/labemol/pets-house.co.ua/www/catalog/view/theme/default/template/product/product.tpl on line 147
2015-12-12 2:33:33 - PHP Notice:  Undefined variable: quantity in /home/labemol/pets-house.co.ua/www/catalog/view/theme/default/template/product/product.tpl on line 147
2015-12-12 3:23:02 - PHP Notice:  Undefined variable: quantity in /home/labemol/pets-house.co.ua/www/catalog/view/theme/default/template/product/product.tpl on line 147
2015-12-12 3:40:31 - PHP Notice:  Undefined variable: quantity in /home/labemol/pets-house.co.ua/www/catalog/view/theme/default/template/product/product.tpl on line 147
2015-12-12 3:55:58 - PHP Notice:  Undefined variable: quantity in /home/labemol/pets-house.co.ua/www/catalog/view/theme/default/template/product/product.tpl on line 147
2015-12-12 3:59:30 - PHP Notice:  Undefined variable: quantity in /home/labemol/pets-house.co.ua/www/catalog/view/theme/default/template/product/product.tpl on line 147
2015-12-12 4:06:11 - PHP Notice:  Undefined variable: quantity in /home/labemol/pets-house.co.ua/www/catalog/view/theme/default/template/product/product.tpl on line 147
2015-12-12 4:44:15 - PHP Notice:  Undefined variable: quantity in /home/labemol/pets-house.co.ua/www/catalog/view/theme/default/template/product/product.tpl on line 147
2015-12-12 4:53:51 - PHP Notice:  Undefined variable: quantity in /home/labemol/pets-house.co.ua/www/catalog/view/theme/default/template/product/product.tpl on line 147
2015-12-12 4:58:50 - PHP Notice:  Undefined variable: quantity in /home/labemol/pets-house.co.ua/www/catalog/view/theme/default/template/product/product.tpl on line 147
2015-12-12 5:22:22 - PHP Notice:  Undefined variable: quantity in /home/labemol/pets-house.co.ua/www/catalog/view/theme/default/template/product/product.tpl on line 147
2015-12-12 5:43:43 - PHP Notice:  Undefined variable: quantity in /home/labemol/pets-house.co.ua/www/catalog/view/theme/default/template/product/product.tpl on line 147
2015-12-12 5:57:23 - PHP Notice:  Undefined variable: quantity in /home/labemol/pets-house.co.ua/www/catalog/view/theme/default/template/product/product.tpl on line 147
2015-12-12 6:26:32 - PHP Notice:  Undefined variable: quantity in /home/labemol/pets-house.co.ua/www/catalog/view/theme/default/template/product/product.tpl on line 147
2015-12-12 6:31:18 - PHP Notice:  Undefined variable: quantity in /home/labemol/pets-house.co.ua/www/catalog/view/theme/default/template/product/product.tpl on line 147
2015-12-12 6:46:18 - PHP Notice:  Undefined variable: quantity in /home/labemol/pets-house.co.ua/www/catalog/view/theme/default/template/product/product.tpl on line 147
2015-12-12 8:18:41 - PHP Notice:  Undefined variable: quantity in /home/labemol/pets-house.co.ua/www/catalog/view/theme/default/template/product/product.tpl on line 147
2015-12-12 8:36:41 - PHP Notice:  Undefined variable: quantity in /home/labemol/pets-house.co.ua/www/catalog/view/theme/default/template/product/product.tpl on line 147
2015-12-12 8:43:42 - PHP Notice:  Undefined variable: quantity in /home/labemol/pets-house.co.ua/www/catalog/view/theme/default/template/product/product.tpl on line 147
2015-12-12 8:55:56 - PHP Notice:  Undefined variable: quantity in /home/labemol/pets-house.co.ua/www/catalog/view/theme/default/template/product/product.tpl on line 147
2015-12-12 9:02:59 - PHP Notice:  Undefined variable: quantity in /home/labemol/pets-house.co.ua/www/catalog/view/theme/default/template/product/product.tpl on line 147
2015-12-12 9:17:01 - PHP Notice:  Undefined variable: quantity in /home/labemol/pets-house.co.ua/www/catalog/view/theme/default/template/product/product.tpl on line 147
2015-12-12 9:47:38 - PHP Notice:  Undefined variable: quantity in /home/labemol/pets-house.co.ua/www/catalog/view/theme/default/template/product/product.tpl on line 147
2015-12-12 9:50:29 - PHP Notice:  Undefined variable: quantity in /home/labemol/pets-house.co.ua/www/catalog/view/theme/default/template/product/product.tpl on line 147
2015-12-12 9:55:05 - PHP Notice:  Undefined variable: quantity in /home/labemol/pets-house.co.ua/www/catalog/view/theme/default/template/product/product.tpl on line 147
2015-12-12 10:13:59 - PHP Notice:  Undefined variable: quantity in /home/labemol/pets-house.co.ua/www/catalog/view/theme/default/template/product/product.tpl on line 147
2015-12-12 10:47:02 - PHP Notice:  Undefined variable: quantity in /home/labemol/pets-house.co.ua/www/catalog/view/theme/default/template/product/product.tpl on line 147
2015-12-12 11:33:28 - PHP Notice:  Undefined variable: quantity in /home/labemol/pets-house.co.ua/www/catalog/view/theme/default/template/product/product.tpl on line 147
2015-12-12 11:43:58 - PHP Notice:  Undefined variable: quantity in /home/labemol/pets-house.co.ua/www/catalog/view/theme/default/template/product/product.tpl on line 147
2015-12-12 11:47:28 - PHP Notice:  Undefined variable: quantity in /home/labemol/pets-house.co.ua/www/catalog/view/theme/default/template/product/product.tpl on line 147
2015-12-12 12:11:20 - PHP Notice:  Undefined variable: quantity in /home/labemol/pets-house.co.ua/www/catalog/view/theme/default/template/product/product.tpl on line 147
2015-12-12 12:17:55 - PHP Notice:  Undefined variable: quantity in /home/labemol/pets-house.co.ua/www/catalog/view/theme/default/template/product/product.tpl on line 147
2015-12-12 12:18:11 - PHP Notice:  Undefined variable: quantity in /home/labemol/pets-house.co.ua/www/catalog/view/theme/default/template/product/product.tpl on line 147
2015-12-12 12:18:20 - PHP Notice:  Undefined variable: quantity in /home/labemol/pets-house.co.ua/www/catalog/view/theme/default/template/product/product.tpl on line 147
2015-12-12 12:18:29 - PHP Notice:  Undefined variable: quantity in /home/labemol/pets-house.co.ua/www/catalog/view/theme/default/template/product/product.tpl on line 147
2015-12-12 12:18:39 - PHP Notice:  Undefined variable: quantity in /home/labemol/pets-house.co.ua/www/catalog/view/theme/default/template/product/product.tpl on line 147
2015-12-12 12:18:50 - PHP Notice:  Undefined variable: quantity in /home/labemol/pets-house.co.ua/www/catalog/view/theme/default/template/product/product.tpl on line 147
2015-12-12 12:19:23 - PHP Notice:  Undefined variable: quantity in /home/labemol/pets-house.co.ua/www/catalog/view/theme/default/template/product/product.tpl on line 147
2015-12-12 12:19:32 - PHP Notice:  Undefined variable: quantity in /home/labemol/pets-house.co.ua/www/catalog/view/theme/default/template/product/product.tpl on line 147
2015-12-12 12:19:37 - PHP Notice:  Undefined variable: quantity in /home/labemol/pets-house.co.ua/www/catalog/view/theme/default/template/product/product.tpl on line 147
2015-12-12 12:19:43 - PHP Notice:  Undefined variable: quantity in /home/labemol/pets-house.co.ua/www/catalog/view/theme/default/template/product/product.tpl on line 147
2015-12-12 12:24:01 - PHP Notice:  Undefined variable: quantity in /home/labemol/pets-house.co.ua/www/catalog/view/theme/default/template/product/product.tpl on line 147
2015-12-12 12:32:28 - PHP Notice:  Undefined variable: quantity in /home/labemol/pets-house.co.ua/www/catalog/view/theme/default/template/product/product.tpl on line 147
2015-12-12 12:32:29 - PHP Notice:  Undefined variable: quantity in /home/labemol/pets-house.co.ua/www/catalog/view/theme/default/template/product/product.tpl on line 147
2015-12-12 12:32:30 - PHP Notice:  Undefined variable: quantity in /home/labemol/pets-house.co.ua/www/catalog/view/theme/default/template/product/product.tpl on line 147
2015-12-12 12:35:47 - PHP Notice:  Undefined variable: quantity in /home/labemol/pets-house.co.ua/www/catalog/view/theme/default/template/product/product.tpl on line 147
2015-12-12 12:47:22 - PHP Notice:  Undefined variable: quantity in /home/labemol/pets-house.co.ua/www/catalog/view/theme/default/template/product/product.tpl on line 147
2015-12-12 12:47:22 - PHP Notice:  Undefined variable: quantity in /home/labemol/pets-house.co.ua/www/catalog/view/theme/default/template/product/product.tpl on line 147
2015-12-12 12:47:27 - PHP Notice:  Undefined variable: quantity in /home/labemol/pets-house.co.ua/www/catalog/view/theme/default/template/product/product.tpl on line 147
2015-12-12 12:58:32 - PHP Notice:  Undefined variable: quantity in /home/labemol/pets-house.co.ua/www/catalog/view/theme/default/template/product/product.tpl on line 147
2015-12-12 12:59:16 - PHP Notice:  Undefined variable: quantity in /home/labemol/pets-house.co.ua/www/catalog/view/theme/default/template/product/product.tpl on line 147
2015-12-12 13:05:13 - PHP Notice:  Undefined variable: quantity in /home/labemol/pets-house.co.ua/www/catalog/view/theme/default/template/product/product.tpl on line 147
2015-12-12 13:05:14 - PHP Notice:  Undefined variable: quantity in /home/labemol/pets-house.co.ua/www/catalog/view/theme/default/template/product/product.tpl on line 147
2015-12-12 13:05:15 - PHP Notice:  Undefined variable: quantity in /home/labemol/pets-house.co.ua/www/catalog/view/theme/default/template/product/product.tpl on line 147
2015-12-12 13:05:16 - PHP Notice:  Undefined variable: quantity in /home/labemol/pets-house.co.ua/www/catalog/view/theme/default/template/product/product.tpl on line 147
2015-12-12 13:05:17 - PHP Notice:  Undefined variable: quantity in /home/labemol/pets-house.co.ua/www/catalog/view/theme/default/template/product/product.tpl on line 147
2015-12-12 13:08:46 - PHP Notice:  Undefined variable: quantity in /home/labemol/pets-house.co.ua/www/catalog/view/theme/default/template/product/product.tpl on line 147
2015-12-12 13:41:23 - PHP Notice:  Undefined variable: quantity in /home/labemol/pets-house.co.ua/www/catalog/view/theme/default/template/product/product.tpl on line 147
2015-12-12 13:41:24 - PHP Notice:  Undefined variable: quantity in /home/labemol/pets-house.co.ua/www/catalog/view/theme/default/template/product/product.tpl on line 147
2015-12-12 13:41:47 - PHP Notice:  Undefined variable: quantity in /home/labemol/pets-house.co.ua/www/catalog/view/theme/default/template/product/product.tpl on line 147
2015-12-12 13:41:48 - PHP Notice:  Undefined variable: quantity in /home/labemol/pets-house.co.ua/www/catalog/view/theme/default/template/product/product.tpl on line 147
2015-12-12 13:41:48 - PHP Notice:  Undefined variable: quantity in /home/labemol/pets-house.co.ua/www/catalog/view/theme/default/template/product/product.tpl on line 147
2015-12-12 13:41:49 - PHP Notice:  Undefined variable: quantity in /home/labemol/pets-house.co.ua/www/catalog/view/theme/default/template/product/product.tpl on line 147
2015-12-12 14:05:48 - PHP Notice:  Undefined variable: quantity in /home/labemol/pets-house.co.ua/www/catalog/view/theme/default/template/product/product.tpl on line 147
2015-12-12 14:55:12 - PHP Notice:  Undefined variable: quantity in /home/labemol/pets-house.co.ua/www/catalog/view/theme/default/template/product/product.tpl on line 147
2015-12-12 15:40:28 - PHP Notice:  Undefined variable: quantity in /home/labemol/pets-house.co.ua/www/catalog/view/theme/default/template/product/product.tpl on line 147
2015-12-12 18:08:35 - PHP Notice:  Undefined variable: quantity in /home/labemol/pets-house.co.ua/www/catalog/view/theme/default/template/product/product.tpl on line 147
2015-12-12 18:33:12 - PHP Notice:  Undefined variable: quantity in /home/labemol/pets-house.co.ua/www/catalog/view/theme/default/template/product/product.tpl on line 147
2015-12-12 18:37:06 - PHP Notice:  Undefined variable: quantity in /home/labemol/pets-house.co.ua/www/catalog/view/theme/default/template/product/product.tpl on line 147
2015-12-12 19:08:39 - PHP Notice:  Undefined variable: quantity in /home/labemol/pets-house.co.ua/www/catalog/view/theme/default/template/product/product.tpl on line 147
2015-12-12 19:12:38 - PHP Notice:  Undefined variable: quantity in /home/labemol/pets-house.co.ua/www/catalog/view/theme/default/template/product/product.tpl on line 147
2015-12-12 19:14:39 - PHP Notice:  Undefined variable: quantity in /home/labemol/pets-house.co.ua/www/catalog/view/theme/default/template/product/product.tpl on line 147
2015-12-12 20:03:30 - PHP Notice:  Undefined variable: quantity in /home/labemol/pets-house.co.ua/www/catalog/view/theme/default/template/product/product.tpl on line 147
2015-12-12 20:32:16 - PHP Notice:  Undefined variable: quantity in /home/labemol/pets-house.co.ua/www/catalog/view/theme/default/template/product/product.tpl on line 147
2015-12-12 20:48:09 - PHP Notice:  Undefined variable: quantity in /home/labemol/pets-house.co.ua/www/catalog/view/theme/default/template/product/product.tpl on line 147
2015-12-12 21:03:57 - PHP Notice:  Undefined variable: quantity in /home/labemol/pets-house.co.ua/www/catalog/view/theme/default/template/product/product.tpl on line 147
2015-12-12 21:05:34 - PHP Notice:  Undefined variable: quantity in /home/labemol/pets-house.co.ua/www/catalog/view/theme/default/template/product/product.tpl on line 147
2015-12-12 21:41:22 - PHP Notice:  Undefined variable: quantity in /home/labemol/pets-house.co.ua/www/catalog/view/theme/default/template/product/product.tpl on line 147
2015-12-12 21:55:08 - PHP Notice:  Undefined variable: quantity in /home/labemol/pets-house.co.ua/www/catalog/view/theme/default/template/product/product.tpl on line 147
2015-12-12 22:06:38 - PHP Notice:  Undefined variable: quantity in /home/labemol/pets-house.co.ua/www/catalog/view/theme/default/template/product/product.tpl on line 147
2015-12-12 22:11:52 - PHP Notice:  Undefined variable: quantity in /home/labemol/pets-house.co.ua/www/catalog/view/theme/default/template/product/product.tpl on line 147
2015-12-12 23:02:41 - PHP Notice:  Undefined variable: quantity in /home/labemol/pets-house.co.ua/www/catalog/view/theme/default/template/product/product.tpl on line 147
2015-12-12 23:02:44 - PHP Notice:  Undefined variable: quantity in /home/labemol/pets-house.co.ua/www/catalog/view/theme/default/template/product/product.tpl on line 147
2015-12-12 23:02:46 - PHP Notice:  Undefined index: product_id in /home/labemol/pets-house.co.ua/www/catalog/controller/module/viewed.php on line 15
2015-12-12 23:02:46 - PHP Notice:  Undefined index: product_id in /home/labemol/pets-house.co.ua/www/catalog/controller/module/viewed.php on line 15
2015-12-12 23:02:46 - PHP Notice:  Undefined index: product_id in /home/labemol/pets-house.co.ua/www/catalog/controller/module/viewed.php on line 15
2015-12-12 23:02:47 - PHP Notice:  Undefined variable: quantity in /home/labemol/pets-house.co.ua/www/catalog/view/theme/default/template/product/product.tpl on line 147
2015-12-12 23:02:47 - PHP Notice:  Undefined variable: quantity in /home/labemol/pets-house.co.ua/www/catalog/view/theme/default/template/product/product.tpl on line 147
2015-12-12 23:02:47 - PHP Notice:  Undefined index: product_id in /home/labemol/pets-house.co.ua/www/catalog/controller/module/viewed.php on line 15
2015-12-12 23:02:47 - PHP Notice:  Undefined index: product_id in /home/labemol/pets-house.co.ua/www/catalog/controller/module/viewed.php on line 15
2015-12-12 23:02:47 - PHP Notice:  Undefined variable: quantity in /home/labemol/pets-house.co.ua/www/catalog/view/theme/default/template/product/product.tpl on line 147
2015-12-12 23:02:47 - PHP Notice:  Undefined variable: quantity in /home/labemol/pets-house.co.ua/www/catalog/view/theme/default/template/product/product.tpl on line 147
2015-12-12 23:02:47 - PHP Notice:  Undefined variable: quantity in /home/labemol/pets-house.co.ua/www/catalog/view/theme/default/template/product/product.tpl on line 147
2015-12-12 23:02:47 - PHP Notice:  Undefined variable: quantity in /home/labemol/pets-house.co.ua/www/catalog/view/theme/default/template/product/product.tpl on line 147
2015-12-12 23:02:47 - PHP Notice:  Undefined variable: quantity in /home/labemol/pets-house.co.ua/www/catalog/view/theme/default/template/product/product.tpl on line 147
2015-12-12 23:02:47 - PHP Notice:  Undefined variable: quantity in /home/labemol/pets-house.co.ua/www/catalog/view/theme/default/template/product/product.tpl on line 147
2015-12-12 23:02:47 - PHP Notice:  Undefined variable: quantity in /home/labemol/pets-house.co.ua/www/catalog/view/theme/default/template/product/product.tpl on line 147
2015-12-12 23:02:47 - PHP Notice:  Undefined variable: quantity in /home/labemol/pets-house.co.ua/www/catalog/view/theme/default/template/product/product.tpl on line 147
2015-12-12 23:02:47 - PHP Notice:  Undefined variable: quantity in /home/labemol/pets-house.co.ua/www/catalog/view/theme/default/template/product/product.tpl on line 147
2015-12-12 23:02:47 - PHP Notice:  Undefined variable: quantity in /home/labemol/pets-house.co.ua/www/catalog/view/theme/default/template/product/product.tpl on line 147
2015-12-12 23:02:48 - PHP Notice:  Undefined variable: quantity in /home/labemol/pets-house.co.ua/www/catalog/view/theme/default/template/product/product.tpl on line 147
2015-12-12 23:02:48 - PHP Notice:  Undefined index: product_id in /home/labemol/pets-house.co.ua/www/catalog/controller/module/viewed.php on line 15
2015-12-12 23:02:48 - PHP Notice:  Undefined variable: quantity in /home/labemol/pets-house.co.ua/www/catalog/view/theme/default/template/product/product.tpl on line 147
2015-12-12 23:02:48 - PHP Notice:  Undefined variable: quantity in /home/labemol/pets-house.co.ua/www/catalog/view/theme/default/template/product/product.tpl on line 147
2015-12-12 23:02:49 - PHP Notice:  Undefined variable: quantity in /home/labemol/pets-house.co.ua/www/catalog/view/theme/default/template/product/product.tpl on line 147
2015-12-12 23:02:49 - PHP Notice:  Undefined variable: quantity in /home/labemol/pets-house.co.ua/www/catalog/view/theme/default/template/product/product.tpl on line 147
2015-12-12 23:02:49 - PHP Notice:  Undefined variable: quantity in /home/labemol/pets-house.co.ua/www/catalog/view/theme/default/template/product/product.tpl on line 147
2015-12-12 23:02:49 - PHP Notice:  Undefined variable: quantity in /home/labemol/pets-house.co.ua/www/catalog/view/theme/default/template/product/product.tpl on line 147
2015-12-12 23:02:49 - PHP Notice:  Undefined variable: quantity in /home/labemol/pets-house.co.ua/www/catalog/view/theme/default/template/product/product.tpl on line 147
2015-12-12 23:02:49 - PHP Notice:  Undefined variable: quantity in /home/labemol/pets-house.co.ua/www/catalog/view/theme/default/template/product/product.tpl on line 147
2015-12-12 23:02:49 - PHP Notice:  Undefined variable: quantity in /home/labemol/pets-house.co.ua/www/catalog/view/theme/default/template/product/product.tpl on line 147
2015-12-12 23:03:17 - PHP Notice:  Undefined variable: quantity in /home/labemol/pets-house.co.ua/www/catalog/view/theme/default/template/product/product.tpl on line 147
2015-12-12 23:09:24 - PHP Notice:  Undefined variable: quantity in /home/labemol/pets-house.co.ua/www/catalog/view/theme/default/template/product/product.tpl on line 147
2015-12-12 23:17:12 - PHP Notice:  Undefined variable: quantity in /home/labemol/pets-house.co.ua/www/catalog/view/theme/default/template/product/product.tpl on line 147
2015-12-12 23:41:47 - PHP Notice:  Undefined variable: quantity in /home/labemol/pets-house.co.ua/www/catalog/view/theme/default/template/product/product.tpl on line 147
2015-12-13 0:26:30 - PHP Notice:  Undefined variable: quantity in /home/labemol/pets-house.co.ua/www/catalog/view/theme/default/template/product/product.tpl on line 147
2015-12-13 0:37:51 - PHP Notice:  Undefined variable: quantity in /home/labemol/pets-house.co.ua/www/catalog/view/theme/default/template/product/product.tpl on line 147
2015-12-13 2:28:01 - PHP Notice:  Undefined variable: quantity in /home/labemol/pets-house.co.ua/www/catalog/view/theme/default/template/product/product.tpl on line 147
2015-12-13 2:57:17 - PHP Notice:  Undefined variable: quantity in /home/labemol/pets-house.co.ua/www/catalog/view/theme/default/template/product/product.tpl on line 147
2015-12-13 3:18:29 - PHP Notice:  Undefined variable: quantity in /home/labemol/pets-house.co.ua/www/catalog/view/theme/default/template/product/product.tpl on line 147
2015-12-13 3:29:12 - PHP Notice:  Undefined variable: quantity in /home/labemol/pets-house.co.ua/www/catalog/view/theme/default/template/product/product.tpl on line 147
2015-12-13 3:53:58 - PHP Notice:  Undefined variable: quantity in /home/labemol/pets-house.co.ua/www/catalog/view/theme/default/template/product/product.tpl on line 147
2015-12-13 4:01:09 - PHP Notice:  Undefined variable: quantity in /home/labemol/pets-house.co.ua/www/catalog/view/theme/default/template/product/product.tpl on line 147
2015-12-13 5:34:20 - PHP Notice:  Undefined variable: quantity in /home/labemol/pets-house.co.ua/www/catalog/view/theme/default/template/product/product.tpl on line 147
2015-12-13 5:42:24 - PHP Notice:  Undefined variable: quantity in /home/labemol/pets-house.co.ua/www/catalog/view/theme/default/template/product/product.tpl on line 147
2015-12-13 6:18:51 - PHP Notice:  Undefined variable: quantity in /home/labemol/pets-house.co.ua/www/catalog/view/theme/default/template/product/product.tpl on line 147
2015-12-13 6:43:37 - PHP Notice:  Undefined variable: quantity in /home/labemol/pets-house.co.ua/www/catalog/view/theme/default/template/product/product.tpl on line 147
2015-12-13 6:59:22 - PHP Notice:  Undefined variable: quantity in /home/labemol/pets-house.co.ua/www/catalog/view/theme/default/template/product/product.tpl on line 147
2015-12-13 8:06:52 - PHP Notice:  Undefined variable: quantity in /home/labemol/pets-house.co.ua/www/catalog/view/theme/default/template/product/product.tpl on line 147
2015-12-13 8:26:12 - PHP Notice:  Undefined variable: quantity in /home/labemol/pets-house.co.ua/www/catalog/view/theme/default/template/product/product.tpl on line 147
2015-12-13 9:42:12 - PHP Notice:  Undefined variable: quantity in /home/labemol/pets-house.co.ua/www/catalog/view/theme/default/template/product/product.tpl on line 147
2015-12-13 10:01:16 - PHP Notice:  Undefined variable: quantity in /home/labemol/pets-house.co.ua/www/catalog/view/theme/default/template/product/product.tpl on line 147
2015-12-13 10:05:10 - PHP Notice:  Undefined variable: quantity in /home/labemol/pets-house.co.ua/www/catalog/view/theme/default/template/product/product.tpl on line 147
2015-12-13 10:22:30 - PHP Notice:  Undefined variable: quantity in /home/labemol/pets-house.co.ua/www/catalog/view/theme/default/template/product/product.tpl on line 147
2015-12-13 10:32:55 - PHP Notice:  Undefined variable: quantity in /home/labemol/pets-house.co.ua/www/catalog/view/theme/default/template/product/product.tpl on line 147
2015-12-13 11:33:34 - PHP Notice:  Undefined variable: quantity in /home/labemol/pets-house.co.ua/www/catalog/view/theme/default/template/product/product.tpl on line 147
